%YAML 1.1
%TAG !u! tag:unity3d.com,2011:
--- !u!1 &7208932515537397316
GameObject:
  m_ObjectHideFlags: 0
  m_CorrespondingSourceObject: {fileID: 0}
  m_PrefabInstance: {fileID: 0}
  m_PrefabAsset: {fileID: 0}
  serializedVersion: 6
  m_Component:
  - component: {fileID: 7932994905559821973}
  - component: {fileID: 5222620347664538180}
  m_Layer: 0
  m_Name: TestGun2
  m_TagString: Untagged
  m_Icon: {fileID: 0}
  m_NavMeshLayer: 0
  m_StaticEditorFlags: 0
  m_IsActive: 1
--- !u!4 &7932994905559821973
Transform:
  m_ObjectHideFlags: 0
  m_CorrespondingSourceObject: {fileID: 0}
  m_PrefabInstance: {fileID: 0}
  m_PrefabAsset: {fileID: 0}
  m_GameObject: {fileID: 7208932515537397316}
  m_LocalRotation: {x: 0, y: 0, z: 0, w: 1}
  m_LocalPosition: {x: -7.6474395, y: -5.6387615, z: -7.281919}
  m_LocalScale: {x: 1, y: 1, z: 1}
  m_Children: []
  m_Father: {fileID: 0}
  m_RootOrder: 0
  m_LocalEulerAnglesHint: {x: 0, y: 0, z: 0}
--- !u!114 &5222620347664538180
MonoBehaviour:
  m_ObjectHideFlags: 0
  m_CorrespondingSourceObject: {fileID: 0}
  m_PrefabInstance: {fileID: 0}
  m_PrefabAsset: {fileID: 0}
  m_GameObject: {fileID: 7208932515537397316}
  m_Enabled: 1
  m_EditorHideFlags: 0
  m_Script: {fileID: 11500000, guid: d80a54ca22c53f249947b63d21c21e81, type: 3}
  m_Name: 
  m_EditorClassIdentifier: 
  bulletLifetime: 8.3
  bulletSpeed: 30
  ammoPerClip: 80
  isExplosiveAmmo: 0
  doesDespawnOnHit: 0
  kickbackForcePerShot: 125
  shotsPerSecond: 56.8
  isAutomatic: 1
  reloadTime: 1.25
  damagePerBullet: 2
  damagePercentDropOff: 40
  speedLimitPercentage: 1
  gunshotPitch: 1.2
  bulletPrefab: {fileID: 5092183580690844753, guid: dcbf364d78fb68a4fa0a0640ee0d4848,
    type: 3}
  AudioEntity: {fileID: 8168362005540493987, guid: 29af5621589ae2740b0b72af1f5160d6,
    type: 3}
  gunShotSound: {fileID: 8300000, guid: 821ffc426b275ec419e14f401194c4b9, type: 3}
  reloadSound: {fileID: 8300000, guid: 89b8ffacf5478c8439e1cc8ebff6c31a, type: 3}
